{
    "product_list": [
        {
            "id": 550239,
            "name": "Men Casual Breathable Lace Up Comfortable Outdoor Shoes",
            "category_id": 200002136,
            "image_url": "//d1vs5fqeka2glf.cloudfront.net/36/51/3662bd172918f26d706ee2b779895251_350x350.jpg",
            "list_price": 260.088525,
            "c_platform_price": 750.771,
            "c_platform_name": "Wish.com",
            "product_no": "XXX000550239N",
            "orders": 1683,
            "daily_testing_flag": 0,
            "c_platform_price_us": 42.0,
            "list_price_us": 14.55,
            "is_pick": false
        },
        {
            "id": 672267,
            "name": "Men's Breathable Canvas Casual Shoes",
            "category_id": 200002136,
            "image_url": "//d1vs5fqeka2glf.cloudfront.net/f4/a9/f49674fe4b48c5347fb33dffb9ddbfa9_350x350.jpg",
            "list_price": 254.18961,
            "c_platform_price": 304.777275,
            "c_platform_name": "",
            "product_no": "FVP000672267N",
            "orders": 776,
            "daily_testing_flag": 0,
            "c_platform_price_us": 17.05,
            "list_price_us": 14.22,
            "is_pick": false
        },
        {
            "id": 424418,
            "name": "Men Sport Leisure Shoes ",
            "category_id": 200002136,
            "image_url": "//d1vs5fqeka2glf.cloudfront.net/02/2b/02b81a5e99aa29d6a617dc460310162b_350x350.jpg",
            "list_price": 207.892065,
            "c_platform_price": 1001.0279999999999,
            "c_platform_name": "Wish.com",
            "product_no": "FVP000424418N",
            "orders": 610,
            "daily_testing_flag": 0,
            "c_platform_price_us": 56.0,
            "list_price_us": 11.63,
            "is_pick": false
        },
        {
            "id": 424178,
            "name": "Men Casual Breathable Shoes",
            "category_id": 200002136,
            "image_url": "//d1vs5fqeka2glf.cloudfront.net/6e/d2/6eeed782574b48099f08fa90c6bf19d2_350x350.jpg",
            "list_price": 235.59909,
            "c_platform_price": 768.6465,
            "c_platform_name": "Wish.com",
            "product_no": "FVP000424178N",
            "orders": 200,
            "daily_testing_flag": 0,
            "c_platform_price_us": 43.0,
            "list_price_us": 13.18,
            "is_pick": false
        },
        {
            "id": 899742,
            "name": "Men's Fashion Comfortble Casual shoes 1105",
            "category_id": 200002136,
            "image_url": "//d1vs5fqeka2glf.cloudfront.net/16/59/160ea5bb9fa8707397c607abde82dc59_350x350.jpg",
            "list_price": 247.03940999999998,
            "c_platform_price": 305.49229499999996,
            "c_platform_name": "",
            "product_no": "FVP000899742N",
            "orders": 143,
            "daily_testing_flag": 0,
            "c_platform_price_us": 17.09,
            "list_price_us": 13.82,
            "is_pick": false
        },
        {
            "id": 672265,
            "name": "Men's Net shoes breathable mesh large size casual shoes",
            "category_id": 200002136,
            "image_url": "//d1vs5fqeka2glf.cloudfront.net/f6/a6/f680a19303ac713ff70c244db5e05ba6_350x350.jpg",
            "list_price": 179.29126499999998,
            "c_platform_price": 208.07082,
            "c_platform_name": "",
            "product_no": "FVP000672265N",
            "orders": 2785,
            "daily_testing_flag": 0,
            "c_platform_price_us": 11.64,
            "list_price_us": 10.03,
            "is_pick": false
        },
        {
            "id": 663226,
            "name": "Men's Comfortable Sneakers",
            "category_id": 200002136,
            "image_url": "//d1vs5fqeka2glf.cloudfront.net/eb/a6/eb7b7b10fa671de79a55201ab07667a6_350x350.jpg",
            "list_price": 253.65334499999997,
            "c_platform_price": 697.1445,
            "c_platform_name": "Wish.com",
            "product_no": "XXX000663226N",
            "orders": 844,
            "daily_testing_flag": 0,
            "c_platform_price_us": 39.0,
            "list_price_us": 14.19,
            "is_pick": false
        },
        {
            "id": 423278,
            "name": "Men's Breathable Walking Casual Shoes ",
            "category_id": 200002136,
            "image_url": "//d1vs5fqeka2glf.cloudfront.net/ba/9b/ba7d02a87ef1478a69380ee0c263e29b_350x350.jpg",
            "list_price": 251.68704,
            "c_platform_price": 625.6424999999999,
            "c_platform_name": "Wish.com",
            "product_no": "FVP000423278N",
            "orders": 908,
            "daily_testing_flag": 0,
            "c_platform_price_us": 35.0,
            "list_price_us": 14.08,
            "is_pick": false
        },
        {
            "id": 425662,
            "name": "Men Casual Shoes",
            "category_id": 200002136,
            "image_url": "//d1vs5fqeka2glf.cloudfront.net/a6/ec/a647ac3a220db0ebb076c5883344e4ec_350x350.jpg",
            "list_price": 230.23644,
            "c_platform_price": 893.775,
            "c_platform_name": "Wish.com",
            "product_no": "FVP000425662N",
            "orders": 745,
            "daily_testing_flag": 0,
            "c_platform_price_us": 50.0,
            "list_price_us": 12.88,
            "is_pick": false
        },
        {
            "id": 399215,
            "name": "Men's Casual Sport Shoes",
            "category_id": 200002136,
            "image_url": "//d1vs5fqeka2glf.cloudfront.net/78/07/7819f8ce0f3edfacac1d36ea6c79eb07_350x350.jpg",
            "list_price": 219.68989499999998,
            "c_platform_price": 661.3934999999999,
            "c_platform_name": "Wish.com",
            "product_no": "XXX000399215N",
            "orders": 162,
            "daily_testing_flag": 0,
            "c_platform_price_us": 37.0,
            "list_price_us": 12.29,
            "is_pick": false
        },
        {
            "id": 928640,
            "name": "Men's Fashion Casual Travel Lace Up Running Shoes ty-1059",
            "category_id": 200002136,
            "image_url": "//d1vs5fqeka2glf.cloudfront.net/4d/aa/4dbc6b89e33ca715fc5341cfb8eeadaa_350x350.jpg",
            "list_price": 255.97716,
            "c_platform_price": 302.09594999999996,
            "c_platform_name": "",
            "product_no": "FVP000928640N",
            "orders": 54,
            "daily_testing_flag": 0,
            "c_platform_price_us": 16.9,
            "list_price_us": 14.32,
            "is_pick": false
        },
        {
            "id": 1540440,
            "name": "Men's New Style Lace Up Casual Shoes Walking",
            "category_id": 200002136,
            "image_url": "//d1vs5fqeka2glf.cloudfront.net/00/89/00944b269ebef7471faa7e260157fd89_350x350.jpg",
            "list_price": 777.58425,
            "c_platform_price": 956.160495,
            "c_platform_name": "",
            "product_no": "MSC001540440N",
            "orders": 53,
            "daily_testing_flag": 0,
            "c_platform_price_us": 53.49,
            "list_price_us": 43.5,
            "is_pick": false
        },
        {
            "id": 677156,
            "name": "Men's Fashion Loafer Shoes",
            "category_id": 200002136,
            "image_url": "//d1vs5fqeka2glf.cloudfront.net/5a/aa/5a0ab4d83afd4d88b41c5ccdd82840aa_350x350.jpg",
            "list_price": 187.69275,
            "c_platform_price": 588.1039499999999,
            "c_platform_name": "Ebay.com",
            "product_no": "XXX000677156N",
            "orders": 733,
            "daily_testing_flag": 0,
            "c_platform_price_us": 32.9,
            "list_price_us": 10.5,
            "is_pick": false
        },
        {
            "id": 716232,
            "name": "Men'S Flats Casual Running Oxfords Leather Shoes Lace Up Sneakers",
            "category_id": 200002136,
            "image_url": "//d1vs5fqeka2glf.cloudfront.net/8c/d6/8c8a253662f00f78a794ca0db4e784d6_350x350.jpg",
            "list_price": 254.010855,
            "c_platform_price": 482.63849999999996,
            "c_platform_name": "Wish.com",
            "product_no": "MSC000716232N",
            "orders": 74,
            "daily_testing_flag": 0,
            "c_platform_price_us": 27.0,
            "list_price_us": 14.21,
            "is_pick": false
        },
        {
            "id": 425274,
            "name": "Men Leisure Breathable Running Shoes",
            "category_id": 200002136,
            "image_url": "//d1vs5fqeka2glf.cloudfront.net/21/4a/2180ec16defd20a53a585f8e119fe64a_350x350.jpg",
            "list_price": 331.76928,
            "c_platform_price": 750.771,
            "c_platform_name": "Wish.com",
            "product_no": "FVP000425274N",
            "orders": 2646,
            "daily_testing_flag": 0,
            "c_platform_price_us": 42.0,
            "list_price_us": 18.56,
            "is_pick": false
        },
        {
            "id": 423747,
            "name": "Men Low-Top Breathable Shoes",
            "category_id": 200002136,
            "image_url": "//d1vs5fqeka2glf.cloudfront.net/23/92/2305603c21209e4fb66a3fc61ffbd992_350x350.jpg",
            "list_price": 340.170765,
            "c_platform_price": 732.8955,
            "c_platform_name": "Wish.com",
            "product_no": "FVP000423747N",
            "orders": 97,
            "daily_testing_flag": 0,
            "c_platform_price_us": 41.0,
            "list_price_us": 19.03,
            "is_pick": false
        },
        {
            "id": 684728,
            "name": "Casual Men'S Slip-On Canvas Loafers ",
            "category_id": 200002136,
            "image_url": "//d1vs5fqeka2glf.cloudfront.net/97/af/97a66ad27addddce9ebb1685ce7d42af_350x350.jpg",
            "list_price": 214.86351,
            "c_platform_price": 518.3895,
            "c_platform_name": "Wish.com",
            "product_no": "SCA000684728N",
            "orders": 78,
            "daily_testing_flag": 0,
            "c_platform_price_us": 29.0,
            "list_price_us": 12.02,
            "is_pick": false
        },
        {
            "id": 424642,
            "name": "Men Breathable Casual Comfortable Shoes",
            "category_id": 200002136,
            "image_url": "//d1vs5fqeka2glf.cloudfront.net/83/d6/83bec0017fdb9b0a1c51c05e533f47d6_350x350.jpg",
            "list_price": 201.99314999999999,
            "c_platform_price": 840.1484999999999,
            "c_platform_name": "Wish.com",
            "product_no": "FVP000424642N",
            "orders": 733,
            "daily_testing_flag": 0,
            "c_platform_price_us": 47.0,
            "list_price_us": 11.3,
            "is_pick": false
        },
        {
            "id": 663347,
            "name": "Men's Casual Suede Sneakers Running Shoes",
            "category_id": 200002136,
            "image_url": "//d1vs5fqeka2glf.cloudfront.net/43/d5/4348ea5c14b67413fbbe7993069521d5_350x350.jpg",
            "list_price": 176.43118499999997,
            "c_platform_price": 355.36493999999993,
            "c_platform_name": "Ebay.com",
            "product_no": "XXX000663347N",
            "orders": 1399,
            "daily_testing_flag": 0,
            "c_platform_price_us": 19.88,
            "list_price_us": 9.87,
            "is_pick": false
        },
        {
            "id": 675172,
            "name": "Men's Casual Leather Sneakers  8880032",
            "category_id": 200002136,
            "image_url": "//d1vs5fqeka2glf.cloudfront.net/f1/c7/f16f54efdfc1b0bc1c42052e1f4d72c7_350x350.jpg",
            "list_price": 241.85551499999997,
            "c_platform_price": 285.47173499999997,
            "c_platform_name": "",
            "product_no": "FVP000675172N",
            "orders": 1182,
            "daily_testing_flag": 0,
            "c_platform_price_us": 15.97,
            "list_price_us": 13.53,
            "is_pick": false
        }
    ]
}