{
    "category_list": [
        {
            "category_id": 51,
            "name": "Women's Clothing",
            "name_us": "Women's Clothing",
            "name_local": "Women's Clothing"
        },
        {
            "category_id": 52,
            "name": "Women's Shoes",
            "name_us": "Women's Shoes",
            "name_local": "Women's Shoes"
        },
        {
            "category_id": 53,
            "name": "Men's Clothing",
            "name_us": "Men's Clothing",
            "name_local": "Men's Clothing"
        },
        {
            "category_id": 54,
            "name": "Men's Shoes",
            "name_us": "Men's Shoes",
            "name_local": "Men's Shoes"
        },
        {
            "category_id": 59,
            "name": "Women's Bags",
            "name_us": "Women's Bags",
            "name_local": "Women's Bags"
        },
        {
            "category_id": 61,
            "name": "Men's Bags",
            "name_us": "Men's Bags",
            "name_local": "Men's Bags"
        },
        {
            "category_id": 60,
            "name": "Kids",
            "name_us": "Kids",
            "name_local": "Kids"
        },
        {
            "category_id": 55,
            "name": "Jewelry",
            "name_us": "Jewelry",
            "name_local": "Jewelry"
        },
        {
            "category_id": 56,
            "name": "Home",
            "name_us": "Home",
            "name_local": "Home"
        },
        {
            "category_id": 57,
            "name": "Electronics",
            "name_us": "Electronics",
            "name_local": "Electronics"
        },
        {
            "category_id": 62,
            "name": "Watches",
            "name_us": "Watches",
            "name_local": "Watches"
        },
        {
            "category_id": 58,
            "name": "Beauty",
            "name_us": "Beauty",
            "name_local": "Beauty"
        },
        {
            "category_id": 63,
            "name": "Office",
            "name_us": "Office",
            "name_local": "Office"
        },
        {
            "category_id": 64,
            "name": "Sports & Fitness",
            "name_us": "Sports & Fitness",
            "name_local": "Sports & Fitness"
        }
    ]
}